{
  "tracks": {
      "href": "https://api.spotify.com/v1/search?query=genre%3Aparty&type=track&offset=0&limit=20",
      "items": [
          {
              "album": {
                  "album_type": "album",
                  "artists": [
                      {
                          "external_urls": {
                              "spotify": "https://open.spotify.com/artist/0LyfQWJT6nXafLPZqxe9Of"
                          },
                          "href": "https://api.spotify.com/v1/artists/0LyfQWJT6nXafLPZqxe9Of",
                          "id": "0LyfQWJT6nXafLPZqxe9Of",
                          "name": "Various Artists",
                          "type": "artist",
                          "uri": "spotify:artist:0LyfQWJT6nXafLPZqxe9Of"
                      }
                  ],
                  "available_markets": [
                      "AE",
                      "ZA"
                  ],
                  "external_urls": {
                      "spotify": "https://open.spotify.com/album/2jfCndl33sv0BTnyvscgQv"
                  },
                  "href": "https://api.spotify.com/v1/albums/2jfCndl33sv0BTnyvscgQv",
                  "id": "2jfCndl33sv0BTnyvscgQv",
                  "images": [
                      {
                          "height": 640,
                          "url": "https://i.scdn.co/image/ab67616d0000b273d5902dbdce23c92816900222",
                          "width": 640
                      },
                      {
                          "height": 300,
                          "url": "https://i.scdn.co/image/ab67616d00001e02d5902dbdce23c92816900222",
                          "width": 300
                      },
                      {
                          "height": 64,
                          "url": "https://i.scdn.co/image/ab67616d00004851d5902dbdce23c92816900222",
                          "width": 64
                      }
                  ],
                  "name": "EDM Gaming 2022",
                  "release_date": "2022-02-11",
                  "release_date_precision": "day",
                  "total_tracks": 44,
                  "type": "album",
                  "uri": "spotify:album:2jfCndl33sv0BTnyvscgQv"
              },
              "artists": [
                  {
                      "external_urls": {
                          "spotify": "https://open.spotify.com/artist/7I2JG3CcPawkeQPE7uypHJ"
                      },
                      "href": "https://api.spotify.com/v1/artists/7I2JG3CcPawkeQPE7uypHJ",
                      "id": "7I2JG3CcPawkeQPE7uypHJ",
                      "name": "HBz",
                      "type": "artist",
                      "uri": "spotify:artist:7I2JG3CcPawkeQPE7uypHJ"
                  },
                  {
                      "external_urls": {
                          "spotify": "https://open.spotify.com/artist/6FKvDHLWOm3kYey5V1uJTT"
                      },
                      "href": "https://api.spotify.com/v1/artists/6FKvDHLWOm3kYey5V1uJTT",
                      "id": "6FKvDHLWOm3kYey5V1uJTT",
                      "name": "Curly",
                      "type": "artist",
                      "uri": "spotify:artist:6FKvDHLWOm3kYey5V1uJTT"
                  }
              ],
              "available_markets": [
                  "AE"
              ],
              "disc_number": 1,
              "duration_ms": 166990,
              "explicit": false,
              "external_ids": {
                  "isrc": "DECE72103214"
              },
              "external_urls": {
                  "spotify": "https://open.spotify.com/track/5r0iMfLookwrfLiYNXEgF1"
              },
              "href": "https://api.spotify.com/v1/tracks/5r0iMfLookwrfLiYNXEgF1",
              "id": "5r0iMfLookwrfLiYNXEgF1",
              "is_local": false,
              "name": "Wenn Es Nachts Ist",
              "popularity": 5,
              "preview_url": null,
              "track_number": 41,
              "type": "track",
              "uri": "spotify:track:5r0iMfLookwrfLiYNXEgF1"
          }
      ],
      "limit": 1,
      "next": "https://api.spotify.com/v1/search?query=genre%3Aparty&type=track&offset=20&limit=20",
      "offset": 0,
      "previous": null,
      "total": 10000
  }
}
